%YAML 1.1
%TAG !u! tag:unity3d.com,2011:
--- !u!114 &11400000
MonoBehaviour:
  m_ObjectHideFlags: 0
  m_CorrespondingSourceObject: {fileID: 0}
  m_PrefabInstance: {fileID: 0}
  m_PrefabAsset: {fileID: 0}
  m_GameObject: {fileID: 0}
  m_Enabled: 1
  m_EditorHideFlags: 0
  m_Script: {fileID: 11500000, guid: 70c2f484f132c044097f03d65cac3b24, type: 3}
  m_Name: OvrAvatarSettings
  m_EditorClassIdentifier: 
  ovrAppID: 3188950974466208
  ovrGearAppID: 3188950974466208
